The Last Decade: NHL’s Best and Worst Power Play Teams
…
# Step 4b: Average the residuals for each team over the past decade. Then,
# perform a one-sample t-test (i.e., from zero) to see teams that were above
# or below the average power play goals/game despite the decrease in 
# power play goals in the last decade  
bestPP <- data5v4 %>% 
  group_by(Team) %>% 
  summarise_each(funs(mean = mean,  
                      sd = sd,
                      sem = sd(.)/sqrt(n()),
                      tpval = t.test(.)$p.value),
                 rel_ppg) %>%
  mutate(sig = tpval < .05)
print(bestPP)

> # A tibble: 30 × 6
>       Team          mean         sd        sem       tpval   sig
>     <fctr>         <dbl>      <dbl>      <dbl>       <dbl> <lgl>
> 1      ANA  0.0295984571 0.08135082 0.02572539 0.279566941 FALSE
> 2      ARI -0.0556384254 0.07765992 0.02455822 0.049721680  TRUE
> 3  ATL.WPG -0.0456169710 0.07345335 0.02322799 0.081136809 FALSE
> 4      BOS -0.0249868897 0.10215940 0.03230564 0.459086769 FALSE
> 5      BUF -0.0230334119 0.09867466 0.03120367 0.479219695 FALSE
> 6      CAR -0.0102398256 0.08962689 0.02834251 0.726219579 FALSE
> 7      CBJ -0.0531692896 0.08913087 0.02818566 0.091863618 FALSE
> 8      CGY -0.0111667945 0.06042159 0.01910699 0.573283741 FALSE
> 9      CHI -0.0007603766 0.08355941 0.02642381 0.977671085 FALSE
> 10     COL -0.0782671517 0.06691173 0.02115935 0.004928647  TRUE
> # ... with 20 more rows
…
