Matthew J. Kmiecik, PhD - Stop Using Excel to Preprocess E-Prime Data
…
Let’s calculate the mean accuracy for condition x block (3 x 4 repeated-measures factorial design). But first, let’s group based on our factors, which are 1) the subjects, 2) the conditions, and 3) the blocks.

acc <- 
  eData_simple %>% 
  group_by(ss, cond, block) %>%
  summarise(
    m = mean(acc),    # mean
    n = n()           # number of trials
    ) %>%               
  ungroup()           # generally a good idea to ungroup when finished

print(acc) # prints to screen

> # A tibble: 60 × 5
>       ss cond  block     m     n
>    <dbl> <chr> <int> <dbl> <int>
>  1   413 a         1 0.875     8
>  2   413 a         2 1         8
>  3   413 a         3 1         8
>  4   413 a         4 0.75      8
>  5   413 p         1 0.75      8
>  6   413 p         2 1         8
>  7   413 p         3 1         8
>  8   413 p         4 1         8
>  9   413 s         1 0.375     8
> 10   413 s         2 0.5       8
> # … with 50 more rows
…
Now what about that pesky reviewer #2? Let’s say reviewer #2 asks for a new analysis that, instead of looking at reaction time, asks for the results with reaction time for only correct solutions? If you preprocessed your data in Excel, you would probably have to re-compute all these values in each sheet and then re-do the analyses. But this is simple in R and is only one additional line of code:

corRT <-  
  eData_simple %>%
  filter(acc == 1) %>%  # filters out inaccurate trials
  group_by(ss, cond, block) %>%
  summarise(
    m = mean(rt),       # mean
    n = n()             # number of trials
    ) %>%
  ungroup()             # generally a good idea to ungroup when finished

print(corRT)            # prints to screen

> # A tibble: 60 × 5
>       ss cond  block     m     n
>    <dbl> <chr> <int> <dbl> <int>
>  1   413 a         1 5999      7
>  2   413 a         2 2393.     8
>  3   413 a         3 2517.     8
>  4   413 a         4 2069      6
>  5   413 p         1 5792.     6
>  6   413 p         2 3228.     8
>  7   413 p         3 1616.     8
>  8   413 p         4 1113      8
>  9   413 s         1 7689.     3
> 10   413 s         2 4858.     4
> # … with 50 more rows
…
