The Last Decade: NHL’s Best and Worst Power Play Teams – Matthew J. Kmiecik, PhD
…
# Step 4b: Average the residuals for each team over the past decade. Then,
# perform a one-sample t-test (i.e., from zero) to see teams that were above
# or below the average power play goals/game despite the decrease in 
# power play goals in the last decade  
bestPP <- data5v4 %>% 
  group_by(Team) %>% 
  summarise_at('rel_ppg', 
               funs(mean = mean,
                    sd = sd,
                    sem = sd(.)/sqrt(n()),
                    tpval = t.test(.)$p.value)) %>%
  mutate(sig = tpval < .05)
print(bestPP)

> # A tibble: 30 × 6
>    Team         mean     sd    sem   tpval sig  
>    <chr>       <dbl>  <dbl>  <dbl>   <dbl> <lgl>
>  1 ANA      0.0296   0.0814 0.0257 0.280   FALSE
>  2 ARI     -0.0556   0.0777 0.0246 0.0497  TRUE 
>  3 ATL.WPG -0.0456   0.0735 0.0232 0.0811  FALSE
>  4 BOS     -0.0250   0.102  0.0323 0.459   FALSE
>  5 BUF     -0.0230   0.0987 0.0312 0.479   FALSE
>  6 CAR     -0.0102   0.0896 0.0283 0.726   FALSE
>  7 CBJ     -0.0532   0.0891 0.0282 0.0919  FALSE
>  8 CGY     -0.0112   0.0604 0.0191 0.573   FALSE
>  9 CHI     -0.000760 0.0836 0.0264 0.978   FALSE
> 10 COL     -0.0783   0.0669 0.0212 0.00493 TRUE 
> # … with 20 more rows
…
